module reanimator

go 1.15

require (
	github.com/containerd/containerd v1.4.3 // indirect
	github.com/docker/distribution v2.7.1+incompatible // indirect
	github.com/docker/docker v20.10.3+incompatible
	github.com/docker/go-connections v0.4.0 // indirect
	github.com/docker/go-units v0.4.0 // indirect
	github.com/gogo/protobuf v1.3.2 // indirect
	github.com/opencontainers/go-digest v1.0.0 // indirect
	github.com/opencontainers/image-spec v1.0.1 // indirect
	github.com/pkg/errors v0.9.1 // indirect
	github.com/sirupsen/logrus v1.7.0 // indirect
	google.golang.org/grpc v1.35.0 // indirect
)
